id,conversation_id,created_at,date,time,timezone,user_id,username,name,place,tweet,mentions,urls,photos,replies_count,retweets_count,likes_count,hashtags,cashtags,link,retweet,quote_url,video,near,geo,source,user_rt_id,user_rt,retweet_id,reply_to,retweet_date,translate,trans_src,trans_dest
1262192946230685696,1262192946230685696,1589765223000,2020-05-18,08:27:03,+07,3177823982,concertadhd,コンサータ,,これから読みたい情報は🐘,[],[],[],0,0,2,[],[],https://twitter.com/concertadhd/status/1262192946230685696,False,,0,,,,,,,"[{'user_id': '3177823982', 'username': 'concertadhd'}]",,,,
1255263654225817602,1185322795732885504,1588113151000,2020-04-29,05:32:31,+07,1153708072902152192,h6_paris,狼,,"単体で飲まれたんですね。
英語の記事翻訳してみたのですが、

・赤と青が強調されて見える

・コリンを供給源とするのでコリンソースと共に服用する必要がある（しなかった場合、頭痛などの症状（？）が現れるそうです）

とのことです！
もう二度としたくないぐらい酷かったんですか？",['concertadhd'],[],[],1,0,0,[],[],https://twitter.com/H6_paris/status/1255263654225817602,False,,0,,,,,,,"[{'user_id': '1153708072902152192', 'username': 'H6_paris'}, {'user_id': '3177823982', 'username': 'concertadhd'}]",,,,
1254987318856839169,1185322795732885504,1588047268000,2020-04-28,11:14:28,+07,1153708072902152192,h6_paris,狼,,すみません。ヌーペプトについてお聞きしたいのですが、目に副作用が現れたようですが、その際何か他の薬と組み合わせて飲まれたりしていましたか？,['concertadhd'],[],[],1,0,0,[],[],https://twitter.com/H6_paris/status/1254987318856839169,False,,0,,,,,,,"[{'user_id': '1153708072902152192', 'username': 'H6_paris'}, {'user_id': '3177823982', 'username': 'concertadhd'}]",,,,
1230574969525952512,1213788001618186240,1582226910000,2020-02-21,02:28:30,+07,1196861580,fujisawa99,neterobinson01,,是非,['concertadhd'],[],[],0,0,0,[],[],https://twitter.com/fujisawa99/status/1230574969525952512,False,,0,,,,,,,"[{'user_id': '1196861580', 'username': 'fujisawa99'}, {'user_id': '3177823982', 'username': 'concertadhd'}]",,,,
1222079242642456576,1215197967369433088,1580201371000,2020-01-28,15:49:31,+07,710583439,ryo_ko1980,カオル＠汚部屋とは見える収納だ❗,,どんな言語だったけ？と思い、思わずググってしまったよwちょっと勉強してみよかな。,['concertadhd'],[],[],0,0,0,[],[],https://twitter.com/ryo_ko1980/status/1222079242642456576,False,,0,,,,,,,"[{'user_id': '710583439', 'username': 'ryo_ko1980'}, {'user_id': '3177823982', 'username': 'concertadhd'}]",,,,
1217479861230419969,1217348226283524097,1579104793000,2020-01-15,23:13:13,+07,1196861580,fujisawa99,neterobinson01,,全く同意,['concertadhd'],[],[],0,0,1,[],[],https://twitter.com/fujisawa99/status/1217479861230419969,False,,0,,,,,,,"[{'user_id': '1196861580', 'username': 'fujisawa99'}, {'user_id': '3177823982', 'username': 'concertadhd'}]",,,,
1216249347119054848,1215979748414746625,1578811415000,2020-01-12,13:43:35,+07,886584261507031042,notyetsail24,🥀𝕸𝖎𝖍𝖔🍼,,あべま…、,['concertadhd'],[],[],1,0,1,[],[],https://twitter.com/notyetsail24/status/1216249347119054848,False,,0,,,,,,,"[{'user_id': '886584261507031042', 'username': 'notyetsail24'}, {'user_id': '3177823982', 'username': 'concertadhd'}]",,,,
1214944082130169861,1214687411378114560,1578500216000,2020-01-08,23:16:56,+07,1633833896,581164,末永 @,,どした？,['concertadhd'],[],[],0,0,0,[],[],https://twitter.com/581164/status/1214944082130169861,False,,0,,,,,,,"[{'user_id': '1633833896', 'username': '581164'}, {'user_id': '3177823982', 'username': 'concertadhd'}]",,,,
1214323917923315715,1213788001618186240,1578352357000,2020-01-07,06:12:37,+07,1196861580,fujisawa99,neterobinson01,,カモーン！,['concertadhd'],[],[],0,0,0,[],[],https://twitter.com/fujisawa99/status/1214323917923315715,False,,0,,,,,,,"[{'user_id': '1196861580', 'username': 'fujisawa99'}, {'user_id': '3177823982', 'username': 'concertadhd'}]",,,,
1213812857571176448,1213806028262797313,1578230511000,2020-01-05,20:21:51,+07,710583439,ryo_ko1980,カオル＠汚部屋とは見える収納だ❗,,わかります🥰今月末、寂れた民宿の和室６畳間に、一人で泊まるのでそれにワクワクしています。コタツ無料、エアコンはコイン式で一時間￥100、「ゴミは持ち帰ってください」の貼り紙のあるらしい部屋w,['concertadhd'],[],[],0,0,1,[],[],https://twitter.com/ryo_ko1980/status/1213812857571176448,False,,0,,,,,,,"[{'user_id': '710583439', 'username': 'ryo_ko1980'}, {'user_id': '3177823982', 'username': 'concertadhd'}]",,,,
1213810232343744512,1213014947245916165,1578229885000,2020-01-05,20:11:25,+07,710583439,ryo_ko1980,カオル＠汚部屋とは見える収納だ❗,,おけましておめでとうです。有名大学。東大生の何割かは、発達障害という話も前にメディアで話題になりましたよね。因みに、私は早稲田出身なんですが、周りで、リタリン(当時はADHDやうつにも処方されてた)飲んでるお仲間が、何人かいたなー。,['concertadhd'],[],[],0,0,1,[],[],https://twitter.com/ryo_ko1980/status/1213810232343744512,False,,0,,,,,,,"[{'user_id': '710583439', 'username': 'ryo_ko1980'}, {'user_id': '3177823982', 'username': 'concertadhd'}]",,,,
1212105304537583617,1212099442846756864,1577823399000,2020-01-01,03:16:39,+07,614992747,alza__27,ℝ𝕚𝕟𝕜𝕠🧬🐸🍜💉,,"コンサータさん、あけましておめでとうございます！
アカウント変わりました( ˊᵕˋ ;)💦",['concertadhd'],[],[],0,0,0,[],[],https://twitter.com/alza__27/status/1212105304537583617,False,,0,,,,,,,"[{'user_id': '614992747', 'username': 'alza__27'}, {'user_id': '3177823982', 'username': 'concertadhd'}]",,,,
1206927798549397506,1205482193306341377,1576588985000,2019-12-17,20:23:05,+07,734185803232907264,taisei896,大成@@@,,おすすめのサプリ教えてください,['concertadhd'],[],[],0,0,0,[],[],https://twitter.com/taisei896/status/1206927798549397506,False,,0,,,,,,,"[{'user_id': '734185803232907264', 'username': 'taisei896'}, {'user_id': '3177823982', 'username': 'concertadhd'}]",,,,
1206868007709921280,1205412237998878720,1576574730000,2019-12-17,16:25:30,+07,710583439,ryo_ko1980,カオル＠汚部屋とは見える収納だ❗,,リスパダール液の0.5ミリ、個人的にはオススメです。,['concertadhd'],[],[],0,0,0,[],[],https://twitter.com/ryo_ko1980/status/1206868007709921280,False,,0,,,,,,,"[{'user_id': '710583439', 'username': 'ryo_ko1980'}, {'user_id': '3177823982', 'username': 'concertadhd'}]",,,,
1206866894017290242,1206860358473809920,1576574464000,2019-12-17,16:21:04,+07,710583439,ryo_ko1980,カオル＠汚部屋とは見える収納だ❗,,バンコク着いたんですね✨私は、シンガポール位しか海外行ったことないんです。飛行機で体調グロッキーになるんで😞💦タイは、セクマイの友達(女性→胸と子宮オペ済み→名前変更済み、性別変更はしてない)も今頃行ってるかも、です。,['concertadhd'],[],[],0,0,0,[],[],https://twitter.com/ryo_ko1980/status/1206866894017290242,False,,0,,,,,,,"[{'user_id': '710583439', 'username': 'ryo_ko1980'}, {'user_id': '3177823982', 'username': 'concertadhd'}]",,,,
1206865223711281154,1205803119667363840,1576574066000,2019-12-17,16:14:26,+07,710583439,ryo_ko1980,カオル＠汚部屋とは見える収納だ❗,,コンサータさん、好きになりそうだわやばい。多分、気が合いそうw,['concertadhd'],[],[],0,0,0,[],[],https://twitter.com/ryo_ko1980/status/1206865223711281154,False,,0,,,,,,,"[{'user_id': '710583439', 'username': 'ryo_ko1980'}, {'user_id': '3177823982', 'username': 'concertadhd'}]",,,,
1206864900758228993,1205803119667363840,1576573989000,2019-12-17,16:13:09,+07,710583439,ryo_ko1980,カオル＠汚部屋とは見える収納だ❗,,あはは👍そう言えば、その彼氏家(荻窪のレトロなアパート住み)に自分でサーバー立ち上げたり、乱雑とした部屋なのに潔癖気味で、スナック菓子を割り箸で食べてた。ワガママでロマンティストでモテる。大好きな人が結婚しちゃったらしく、その人妻と不倫して苦しんでた。お母さん自殺本人メンヘラ。,['concertadhd'],[],[],1,0,0,[],[],https://twitter.com/ryo_ko1980/status/1206864900758228993,False,,0,,,,,,,"[{'user_id': '710583439', 'username': 'ryo_ko1980'}, {'user_id': '3177823982', 'username': 'concertadhd'}]",,,,
1206862884052955137,1205803119667363840,1576573508000,2019-12-17,16:05:08,+07,710583439,ryo_ko1980,カオル＠汚部屋とは見える収納だ❗,,嬉しい😁あ、でも私元バンギャで水商売してたから避けた方がいいかもー。夫かー。「１週間、昔からの男友達と海外旅行行く。現地で皆と集合」って言えばOK出る位束縛ない人ではあるよw移住は、無理だけど。プチ移住ならやらせてくれる位変わり者。,['concertadhd'],[],[],0,0,0,[],[],https://twitter.com/ryo_ko1980/status/1206862884052955137,False,,0,,,,,,,"[{'user_id': '710583439', 'username': 'ryo_ko1980'}, {'user_id': '3177823982', 'username': 'concertadhd'}]",,,,
1206858285959090176,1205803119667363840,1576572412000,2019-12-17,15:46:52,+07,710583439,ryo_ko1980,カオル＠汚部屋とは見える収納だ❗,,あ、オランダも好きです✨大学時代の彼氏は、オランダよく行く人でした。アムスなんちゃらとか、そういう意味でする。,['concertadhd'],[],[],1,0,0,[],[],https://twitter.com/ryo_ko1980/status/1206858285959090176,False,,0,,,,,,,"[{'user_id': '710583439', 'username': 'ryo_ko1980'}, {'user_id': '3177823982', 'username': 'concertadhd'}]",,,,
1206857865719250944,1205803119667363840,1576572312000,2019-12-17,15:45:12,+07,710583439,ryo_ko1980,カオル＠汚部屋とは見える収納だ❗,,ドイツ、私も好きですね。大学時代の第二外国語、ドイツ語専攻してましたー。コンサータさん、第二夫になって欲しい😁,['concertadhd'],[],[],0,0,0,[],[],https://twitter.com/ryo_ko1980/status/1206857865719250944,False,,0,,,,,,,"[{'user_id': '710583439', 'username': 'ryo_ko1980'}, {'user_id': '3177823982', 'username': 'concertadhd'}]",,,,
