id,conversation_id,created_at,date,time,timezone,user_id,username,name,place,tweet,mentions,urls,photos,replies_count,retweets_count,likes_count,hashtags,cashtags,link,retweet,quote_url,video,near,geo,source,user_rt_id,user_rt,retweet_id,reply_to,retweet_date,translate,trans_src,trans_dest
1237725682727129094,1237723598455889922,1583931773000,2020-03-11,20:02:53,+07,912865156153073664,nz8pn,物忘れ大臣,,ありがとうございます🙇‍♀️よろしくお願いしますーー！,['everydaysleepy1'],[],[],0,0,1,[],[],https://twitter.com/NZ8pn/status/1237725682727129094,False,,0,,,,,,,"[{'user_id': '912865156153073664', 'username': 'NZ8pn'}, {'user_id': '749897352463282178', 'username': 'everydaysleepy1'}]",,,,
1237724266813992960,1237723598455889922,1583931435000,2020-03-11,19:57:15,+07,912865156153073664,nz8pn,物忘れ大臣,,"きゃーーーー！！ごめんなさい！！大変失礼しました！思い込みでキャンセル処理してしまいました…！
お手数ですが、もう一度申し込みいただけますでしょうか。。本当にごめんなさい。",['everydaysleepy1'],[],[],1,0,0,[],[],https://twitter.com/NZ8pn/status/1237724266813992960,False,,0,,,,,,,"[{'user_id': '912865156153073664', 'username': 'NZ8pn'}, {'user_id': '749897352463282178', 'username': 'everydaysleepy1'}]",,,,
1237583441274667010,1237579327853572098,1583897860000,2020-03-11,10:37:40,+07,749897352463282178,everydaysleepy1,nemui,,確かに振り返ると、私はゾッコンになると相手の言う事は全肯定するし尽くしてしまう所があって、それが彼の甘えを助長していたのかなと。今は好きなように自分の意見ガンガンぶつけるし、彼氏より優先するものがあり、眠い時は放置して勝手に寝る、彼氏の家事をしないなど。自分中心でいれて心が健康💐,[],[],[],0,0,1,[],[],https://twitter.com/everydaysleepy1/status/1237583441274667010,False,,0,,,,,,,"[{'user_id': '749897352463282178', 'username': 'everydaysleepy1'}]",,,,
1178586115697070080,1178581184931979264,1569831801000,2019-09-30,15:23:21,+07,3299410627,currygirlchan_,🏠マダムふくだ🏠,,"ですです！えらい！
午後は寝られる時間をむしろ作っちゃえばいいのですよ〜",['everydaysleepy1'],[],[],1,0,1,[],[],https://twitter.com/currygirlchan_/status/1178586115697070080,False,,0,,,,,,,"[{'user_id': '3299410627', 'username': 'currygirlchan_'}, {'user_id': '749897352463282178', 'username': 'everydaysleepy1'}]",,,,
1178581429833191424,1178581184931979264,1569830684000,2019-09-30,15:04:44,+07,3299410627,currygirlchan_,🏠マダムふくだ🏠,,一回起きてるんだからとりあえず目標は達成ってことで☆,['everydaysleepy1'],[],[],1,0,1,[],[],https://twitter.com/currygirlchan_/status/1178581429833191424,False,,0,,,,,,,"[{'user_id': '3299410627', 'username': 'currygirlchan_'}, {'user_id': '749897352463282178', 'username': 'everydaysleepy1'}]",,,,
1177630656907493377,1177467979950223362,1569604002000,2019-09-28,00:06:42,+07,1075741251562024960,adhd_jd,☂️むらさき@鬱/休学,,ありがとうございます（ ;  ; ）,['everydaysleepy1'],[],[],0,0,1,[],[],https://twitter.com/adhd_JD/status/1177630656907493377,False,,0,,,,,,,"[{'user_id': '1075741251562024960', 'username': 'adhd_JD'}, {'user_id': '749897352463282178', 'username': 'everydaysleepy1'}]",,,,
1163000813578403840,1162320137099210752,1566115976000,2019-08-18,15:12:56,+07,1040607704895504384,adhd66502327,爆裂のADHD いむら,,"ほんまそれです、信頼はもって3ヵ月(笑)

5%は本当に体感でしかないです←
18→27→36 (mg)と来てますがまぁ量に準じて効き目は高まってると感じます。
あと、元々集中出来てた作業なんかで比べると分かるんですけど、結構作業量は増えるので嬉しくなりますよ！",['everydaysleepy1'],[],[],0,0,0,[],[],https://twitter.com/ADHD66502327/status/1163000813578403840,False,,0,,,,,,,"[{'user_id': '1040607704895504384', 'username': 'ADHD66502327'}, {'user_id': '749897352463282178', 'username': 'everydaysleepy1'}]",,,,
1162761583988101120,1162320137099210752,1566058939000,2019-08-17,23:22:19,+07,1040607704895504384,adhd66502327,爆裂のADHD いむら,,"起床がサッと出来れば、それだけでどれ程人生が楽しくなるだろうかと...😇
結論から言うとあんまり関係ないですが、
コンサータでやる気の出力が5%位上がった感じですかね。
飲んで無かったらもうちょい仕事出来ない人には見られてるかも知れませんが('ω')",['everydaysleepy1'],[],[],1,0,1,[],[],https://twitter.com/ADHD66502327/status/1162761583988101120,False,,0,,,,,,,"[{'user_id': '1040607704895504384', 'username': 'ADHD66502327'}, {'user_id': '749897352463282178', 'username': 'everydaysleepy1'}]",,,,
1162328033451053056,1162320137099210752,1565955572000,2019-08-16,18:39:32,+07,1040607704895504384,adhd66502327,爆裂のADHD いむら,,"朝弱いと特に、効いてくるまで動けないし
耐えるのキツいですよね～。
考えただけで眠い...(´ω`)",['everydaysleepy1'],[],[],1,0,0,[],[],https://twitter.com/ADHD66502327/status/1162328033451053056,False,,0,,,,,,,"[{'user_id': '1040607704895504384', 'username': 'ADHD66502327'}, {'user_id': '749897352463282178', 'username': 'everydaysleepy1'}]",,,,
1162071143991263233,1162070509929893888,1565894325000,2019-08-16,01:38:45,+07,749897352463282178,everydaysleepy1,nemui,,"死を考える人の気持ちを知っているか、、！！？？？！！？
明るい人がいい、つまり以前の私が好きで現在の私は暗いから受け入れられない的なニュアンスを含んでいないか？？？？？自己の連続性問題に関して他者から指摘受けるとビビるな！
アイデンティティとは！！！！",[],[],[],0,0,2,[],[],https://twitter.com/everydaysleepy1/status/1162071143991263233,False,,0,,,,,,,"[{'user_id': '749897352463282178', 'username': 'everydaysleepy1'}]",,,,
1154650846983966720,1154476119887732736,1564125188000,2019-07-26,14:13:08,+07,4164095173,graphpair_mima,ｍ,,"比較的安く、老舗が多いイメージです。（最近の箱根バブルはすごくて…新しくて高いホテルがバンバン立ってます）

観光にどちらに行かれるかですが、本数や時間に注意すれば湯河原方面から芦ノ湖へ向かうバスもありますので。ただ露天風呂付の部屋で調べた結果ではないので、そこだけご注意ください…",['everydaysleepy1'],[],[],1,0,1,[],[],https://twitter.com/graphpair_MiMa/status/1154650846983966720,False,,0,,,,,,,"[{'user_id': '4164095173', 'username': 'graphpair_MiMa'}, {'user_id': '749897352463282178', 'username': 'everydaysleepy1'}]",,,,
1154514161671393280,1154476119887732736,1564092600000,2019-07-26,05:10:00,+07,4164095173,graphpair_mima,ｍ,,平日だったら無いこともないかも…ぐらいの厳しい条件ですね。箱根エリアだとほぼ無いと思うのですが、少し足を伸ばして湯河原で探してみるのはどうですか？,['everydaysleepy1'],[],[],1,0,1,[],[],https://twitter.com/graphpair_MiMa/status/1154514161671393280,False,,0,,,,,,,"[{'user_id': '4164095173', 'username': 'graphpair_MiMa'}, {'user_id': '749897352463282178', 'username': 'everydaysleepy1'}]",,,,
1138138524752814081,1138137809829605381,1560188344000,2019-06-11,00:39:04,+07,749897352463282178,everydaysleepy1,nemui,,"ちな今まであげたのはキーケース、おしゃれなパンツ。どっちも5,000円程度の軽めのプレゼント。
どっちもボロボロで緊急性高かったので、タイミングはぴったりですごくよいプレゼントだったと思われる。

う〜〜〜〜〜〜〜〜む、はてさてどうしたものか",[],[],[],0,0,1,[],[],https://twitter.com/everydaysleepy1/status/1138138524752814081,False,,0,,,,,,,"[{'user_id': '749897352463282178', 'username': 'everydaysleepy1'}]",,,,
1052231551218475008,1052230513442750464,1539706525000,2018-10-16,23:15:25,+07,749897352463282178,everydaysleepy1,nemui,,"だからいつまでも変われない。成長出来ない。
スキルだけ上手くなって中身空っぽなの変わらないから満足も出来ない。努力家な人ほど陥りがち。満たされない悲しさ=ハングリー精神と勘違いして「ここまで頑張ってきたのになんでだ？」「まだまだ足りないからだ！」と人生かけて繰り返す。可哀想。",[],[],[],0,0,0,[],[],https://twitter.com/everydaysleepy1/status/1052231551218475008,False,,0,,,,,,,"[{'user_id': '749897352463282178', 'username': 'everydaysleepy1'}]",,,,
1052231061755686912,1052230513442750464,1539706409000,2018-10-16,23:13:29,+07,749897352463282178,everydaysleepy1,nemui,,"そういう人ってセックスし続ける事で癒えるものって何もないんだよな。
女はそういう時期があってもちゃんといつか抜ける。男はいつまでもそこに執着し続ける。

本質的には、過去の経験や自分の性質にコンプレックスがある。そこをリカバーする為に躍起になってる事すら気付いてない。",[],[],[],1,0,0,[],[],https://twitter.com/everydaysleepy1/status/1052231061755686912,False,,0,,,,,,,"[{'user_id': '749897352463282178', 'username': 'everydaysleepy1'}]",,,,
1005432475009482752,1005393516481007617,1528548756000,2018-06-09,19:52:36,+07,882803145692241921,feng_bb,フォン,,恋は人生の経験、感謝しないとね。できない人も居るのだし😅,['everydaysleepy1'],[],[],0,0,0,[],[],https://twitter.com/feng_bb/status/1005432475009482752,False,,0,,,,,,,"[{'user_id': '882803145692241921', 'username': 'feng_bb'}, {'user_id': '749897352463282178', 'username': 'everydaysleepy1'}]",,,,
1000021901631094784,999646069620334592,1527258775000,2018-05-25,21:32:55,+07,743360683438288896,aoooyhcjp,良平,,そらあんたと同じやろ,['everydaysleepy1'],[],[],0,0,0,[],[],https://twitter.com/aoooyhcjp/status/1000021901631094784,False,,0,,,,,,,"[{'user_id': '743360683438288896', 'username': 'aoooyhcjp'}, {'user_id': '749897352463282178', 'username': 'everydaysleepy1'}]",,,,
994152148161064961,994152148161064961,1525859317000,2018-05-09,16:48:37,+07,115639376,akiko_lawson,ローソン,,"@everydaysleepy1 抽選結果をお伝えします。アイスカフェラテの代わりに「ウチカフェスイーツ20円引クーポン」を差し上げます！クーポンコードは「C01572157」ご利用は5/23まで♪使い方⇒ https://bit.ly/2z3eOoF?ts=20180509184837 …
#ローソン #ごちろう pic.twitter.com/qUwhvdpR8h",['everydaysleepy1'],['https://bit.ly/2z3eOoF?ts=20180509184837'],[],0,0,0,"['#ローソン', '#ごちろう']",[],https://twitter.com/akiko_lawson/status/994152148161064961,False,,1,,,,,,,"[{'user_id': '115639376', 'username': 'akiko_lawson'}, {'user_id': '749897352463282178', 'username': 'everydaysleepy1'}]",,,,
948751749652692992,948740943087255552,1515035018000,2018-01-04,10:03:38,+07,96552045,vivi_nishi,ヴィヴィアン西木,,感覚が研ぎ澄まされる日。見たり聞いたり感じたり五感に刺激を与えることでプラスに。ラッキーカラーは深い緑。,['everydaysleepy1'],[],[],0,0,1,[],[],https://twitter.com/vivi_nishi/status/948751749652692992,False,,0,,,,,,,"[{'user_id': '96552045', 'username': 'vivi_nishi'}, {'user_id': '749897352463282178', 'username': 'everydaysleepy1'}]",,,,
879507515045691392,879373260265148417,1498525906000,2017-06-27,08:11:46,+07,835865825294729216,c66bntzkii,kii,,"優しい。偉いなあ。。。
自宅じゃなくて良かったね。笑",['everydaysleepy1'],[],[],0,0,0,[],[],https://twitter.com/C66bntzKii/status/879507515045691392,False,,0,,,,,,,"[{'user_id': '835865825294729216', 'username': 'C66bntzKii'}, {'user_id': '749897352463282178', 'username': 'everydaysleepy1'}]",,,,
879500308983853056,879373260265148417,1498524188000,2017-06-27,07:43:08,+07,835865825294729216,c66bntzkii,kii,,ひどい話しやなあ。。。ちゃんねむ介抱してあげたの？,['everydaysleepy1'],[],[],1,0,0,[],[],https://twitter.com/C66bntzKii/status/879500308983853056,False,,0,,,,,,,"[{'user_id': '835865825294729216', 'username': 'C66bntzKii'}, {'user_id': '749897352463282178', 'username': 'everydaysleepy1'}]",,,,
872672758030712838,872450870473924609,1496896373000,2017-06-08,11:32:53,+07,835865825294729216,c66bntzkii,kii,,"良い！椎名林檎お好きー？
林檎様はいつまでも歌姫",['naami7308'],[],[],0,0,0,[],[],https://twitter.com/C66bntzKii/status/872672758030712838,False,,0,,,,,,,"[{'user_id': '835865825294729216', 'username': 'C66bntzKii'}, {'user_id': '867073339', 'username': 'naami7308'}]",,,,
871204852998692864,871196848689520640,1496546397000,2017-06-04,10:19:57,+07,855339730564595712,pharmacist_desu,細菌くん,,"鬼可愛いよね！
こんな子と付き合いたい",['naami7308'],[],[],1,0,0,[],[],https://twitter.com/pharmacist_desu/status/871204852998692864,False,,0,,,,,,,"[{'user_id': '855339730564595712', 'username': 'pharmacist_desu'}, {'user_id': '867073339', 'username': 'naami7308'}]",,,,
862911287302406145,862903473150361600,1494569057000,2017-05-12,13:04:17,+07,749897352463282178,everydaysleepy1,nemui,,間違えた！名無しさんだったんですね笑,[],[],[],0,0,0,[],[],https://twitter.com/everydaysleepy1/status/862911287302406145,False,,0,,,,,,,"[{'user_id': '749897352463282178', 'username': 'everydaysleepy1'}]",,,,
862557800630636544,862520649339633665,1494484779000,2017-05-11,13:39:39,+07,835865825294729216,c66bntzkii,kii,,なんじゃ彼氏か彼氏か？笑 お？,['naami7308'],[],[],1,0,0,[],[],https://twitter.com/C66bntzKii/status/862557800630636544,False,,0,,,,,,,"[{'user_id': '835865825294729216', 'username': 'C66bntzKii'}, {'user_id': '867073339', 'username': 'naami7308'}]",,,,
861487826990268417,861459146515795968,1494229678000,2017-05-08,14:47:58,+07,800268631644905472,mochihco,ﾔ ﾏ ﾀﾞ,,ありがとうございます😢,['naami7308'],[],[],0,0,0,[],[],https://twitter.com/mochihco/status/861487826990268417,False,,0,,,,,,,"[{'user_id': '800268631644905472', 'username': 'mochihco'}, {'user_id': '867073339', 'username': 'naami7308'}]",,,,
860839534044381184,860837995766665216,1494075113000,2017-05-06,19:51:53,+07,855339730564595712,pharmacist_desu,細菌くん,,きてよー,['naami7308'],[],[],1,0,1,[],[],https://twitter.com/pharmacist_desu/status/860839534044381184,False,,0,,,,,,,"[{'user_id': '855339730564595712', 'username': 'pharmacist_desu'}, {'user_id': '867073339', 'username': 'naami7308'}]",,,,
859822136415862784,859766616237645826,1493832546000,2017-05-04,00:29:06,+07,835865825294729216,c66bntzkii,kii,,"非常に良い
イケメン引っ掛けて連れ込めばいいさ",['naami7308'],[],[],0,0,0,[],[],https://twitter.com/C66bntzKii/status/859822136415862784,False,,0,,,,,,,"[{'user_id': '835865825294729216', 'username': 'C66bntzKii'}, {'user_id': '867073339', 'username': 'naami7308'}]",,,,
859794232730501120,859766616237645826,1493825893000,2017-05-03,22:38:13,+07,835865825294729216,c66bntzkii,kii,,"あーそれは心配されずに飲まされるやつ。笑
あ！失礼。笑 でも目だけのお写真あったよね？笑 羨ましいぱっちりお目目",['naami7308'],[],[],1,0,0,[],[],https://twitter.com/C66bntzKii/status/859794232730501120,False,,0,,,,,,,"[{'user_id': '835865825294729216', 'username': 'C66bntzKii'}, {'user_id': '867073339', 'username': 'naami7308'}]",,,,
859793117096038400,859766616237645826,1493825627000,2017-05-03,22:33:47,+07,835865825294729216,c66bntzkii,kii,,"眠ちゃん色白やしあんまり顔に出なさそうなイメージ！
トップ画本人さん？",['naami7308'],[],[],1,0,0,[],[],https://twitter.com/C66bntzKii/status/859793117096038400,False,,0,,,,,,,"[{'user_id': '835865825294729216', 'username': 'C66bntzKii'}, {'user_id': '867073339', 'username': 'naami7308'}]",,,,
859788914537648128,859766616237645826,1493824625000,2017-05-03,22:17:05,+07,835865825294729216,c66bntzkii,kii,,"でも大丈夫ですよー？って言ってへろんへろんになるまで飲むやーつ！
眠ちゃんは？お酒強いの？",['naami7308'],[],[],1,0,0,[],[],https://twitter.com/C66bntzKii/status/859788914537648128,False,,0,,,,,,,"[{'user_id': '835865825294729216', 'username': 'C66bntzKii'}, {'user_id': '867073339', 'username': 'naami7308'}]",,,,
859781108363177984,859766616237645826,1493822764000,2017-05-03,21:46:04,+07,835865825294729216,c66bntzkii,kii,,"後は寝るだけだからね！
お酒は好きだがまあまあ弱い！！！すぐ顔真っ赤になるがな",['naami7308'],[],[],1,0,0,[],[],https://twitter.com/C66bntzKii/status/859781108363177984,False,,0,,,,,,,"[{'user_id': '835865825294729216', 'username': 'C66bntzKii'}, {'user_id': '867073339', 'username': 'naami7308'}]",,,,
859778895268028417,859766616237645826,1493822237000,2017-05-03,21:37:17,+07,835865825294729216,c66bntzkii,kii,,奇遇ですな。私も家で飲んでおる。お家かい！！だったらもっと飲めるよね？ね？笑,['naami7308'],[],[],1,0,0,[],[],https://twitter.com/C66bntzKii/status/859778895268028417,False,,0,,,,,,,"[{'user_id': '835865825294729216', 'username': 'C66bntzKii'}, {'user_id': '867073339', 'username': 'naami7308'}]",,,,
859775657873522688,859766616237645826,1493821465000,2017-05-03,21:24:25,+07,835865825294729216,c66bntzkii,kii,,"非常に分かる。お酒楽しい。笑
でも調子乗って飲みすぎないように！！！気をつけて帰るんだよ！",['naami7308'],[],[],1,0,1,[],[],https://twitter.com/C66bntzKii/status/859775657873522688,False,,0,,,,,,,"[{'user_id': '835865825294729216', 'username': 'C66bntzKii'}, {'user_id': '867073339', 'username': 'naami7308'}]",,,,
854355214005968900,854347591814848514,1492529130000,2017-04-18,22:25:30,+07,835865825294729216,c66bntzkii,kii,,お目々ぱっちりやねんな！羨ましい！,['naami7308'],[],[],0,0,1,[],[],https://twitter.com/C66bntzKii/status/854355214005968900,False,,0,,,,,,,"[{'user_id': '835865825294729216', 'username': 'C66bntzKii'}, {'user_id': '867073339', 'username': 'naami7308'}]",,,,
846514738553020416,846395377905426432,1490659815000,2017-03-28,07:10:15,+07,96552045,vivi_nishi,ヴィヴィアン西木,,依存度が大きいほど立ち直るのに時間がかかると思いますが時間も解決の助けになってくれます。応援してます。,['naami7308'],[],[],1,0,1,[],[],https://twitter.com/vivi_nishi/status/846514738553020416,False,,0,,,,,,,"[{'user_id': '96552045', 'username': 'vivi_nishi'}, {'user_id': '867073339', 'username': 'naami7308'}]",,,,
836959630227988480,836920909474623489,1488381700000,2017-03-01,22:21:40,+07,146107215,aya_nyan_aaa,あやにゃん,,ありがとうございます😌辻村さんの小説、とても良いですよね！好きな方いて嬉しいです☺️スロウハイツのコウちゃん環が好きで私も読み返したりしますー！,['naami7308'],[],[],1,0,1,[],[],https://twitter.com/aya_nyan_aaa/status/836959630227988480,False,,0,,,,,,,"[{'user_id': '146107215', 'username': 'aya_nyan_aaa'}, {'user_id': '867073339', 'username': 'naami7308'}]",,,,
823209017056972800,823208871577600001,1485103298000,2017-01-22,23:41:38,+07,749897352463282178,everydaysleepy1,nemui,,デザイニングカラーアイズ,['naami7308'],[],[],0,0,0,[],[],https://twitter.com/everydaysleepy1/status/823209017056972800,False,,0,,,,,,,"[{'user_id': '749897352463282178', 'username': 'everydaysleepy1'}, {'user_id': '867073339', 'username': 'naami7308'}]",,,,
814640348181860352,814502452368019456,1483060368000,2016-12-30,08:12:48,+07,420855493,eri_ccho,えり,,"そうなんだー。でもワキの処理とか母乳染み対策とかいろいろ大変そう^^;
学校と部活と両立できるかなぁ〜",['naami7308'],[],[],0,0,0,[],[],https://twitter.com/eri_ccho/status/814640348181860352,False,,0,,,,,,,"[{'user_id': '420855493', 'username': 'eri_ccho'}, {'user_id': '867073339', 'username': 'naami7308'}]",,,,
812332590417879040,812172564134903808,1482510156000,2016-12-23,23:22:36,+07,803946066957606913,ayc1004wl,あ ゆ,,リプありがとうございます。そうなんです。お家に着いてからおや？みなさんがあげてるのと違うと気づきまた買いに走りました笑,['naami7308'],[],[],0,0,1,[],[],https://twitter.com/ayc1004wl/status/812332590417879040,False,,0,,,,,,,"[{'user_id': '803946066957606913', 'username': 'ayc1004wl'}, {'user_id': '867073339', 'username': 'naami7308'}]",,,,
774001663036133376,773989540444766208,1473371351000,2016-09-09,04:49:11,+07,420855493,eri_ccho,えり,,ありがとです♪来月出産なので吐き気がすごいですががんばります！,['naami7308'],[],[],0,0,0,[],[],https://twitter.com/eri_ccho/status/774001663036133376,False,,0,,,,,,,"[{'user_id': '420855493', 'username': 'eri_ccho'}, {'user_id': '867073339', 'username': 'naami7308'}]",,,,
