,Unnamed: 0.1,Unnamed: 0.1.1,username
0,0.0,0.0,RepM0914
1,1.0,1.0,Roya1Copenhagen
2,2.0,2.0,h
3,3.0,3.0,R
4,4.0,4.0,_
5,5.0,5.0,Heiheiyah
6,6.0,6.0,oniba_haru6
7,7.0,7.0,YaBYAKrOPAdJTGc
8,8.0,8.0,kyXfTfyMPFsUWCW
9,9.0,9.0,abewakimoi
10,10.0,10.0,Riy603
11,11.0,11.0,sjoe_gsidjro
12,12.0,12.0,NATSUKI0920KAN
13,13.0,13.0,cyysnnnkbr
14,14.0,14.0,oldcastledoor1
15,15.0,15.0,tvjdmwga
16,16.0,16.0,n_n__n122
17,17.0,17.0,_n_e_m_u_i_y_o_
18,18.0,18.0,igaitaidesi
19,19.0,19.0,jKX76c1Nm5X5HHC
20,20.0,20.0,BRACKPINK1111
21,21.0,21.0,Hoorayer
22,22.0,22.0,crystalbambi_
23,23.0,23.0,bluee_waterlily
24,24.0,24.0,DumaiuIaUmier
25,25.0,25.0,Gip777
26,26.0,26.0,kirukirar
27,27.0,27.0,Its_me_Erika__
28,28.0,28.0,TetsuMatsukawa8
29,29.0,29.0,__stoOo__
30,30.0,30.0,ketuge_gg
31,31.0,31.0,kskslady
32,32.0,32.0,ayyn00000
33,33.0,33.0,FooIsRoma
34,34.0,34.0,wineet_the_pooh
35,35.0,35.0,emiriharu318
36,36.0,36.0,tzxm
37,37.0,37.0,auauaaa5434
38,38.0,38.0,lililillllili
39,39.0,39.0,__kpi3224
40,40.0,40.0,1120sr
41,41.0,41.0,suraringaru0712
42,42.0,42.0,gurgargur
43,43.0,43.0,HUMANIMAL6661
44,44.0,44.0,uezu0818
45,45.0,45.0,BoodJp
46,46.0,46.0,yo_sukeeeeee
47,47.0,47.0,mwmwmwm117
48,48.0,48.0,lovesMarrom
49,49.0,49.0,peacefuld_style
50,50.0,50.0,m_______kya
51,51.0,51.0,LifeKn
52,52.0,52.0,shun__0417
53,53.0,53.0,hiroaki0909304
54,54.0,54.0,Nyontyanimi723
55,55.0,55.0,_73c
56,56.0,56.0,tanakanobaiku
57,57.0,57.0,_MRKWARS
58,58.0,58.0,tofukuzureta
59,59.0,59.0,kyonghagi
60,60.0,60.0,photophotocam
61,61.0,61.0,087909404t
62,62.0,62.0,LeeNagyung0601
63,63.0,63.0,kaki_umai_yabai
64,64.0,64.0,AkasakaDoragon
65,65.0,65.0,pigedatta
66,66.0,66.0,mufftabeta
67,67.0,67.0,ccc99142819
68,68.0,68.0,aniel07s24fon
69,69.0,69.0,tasuke_milk
70,70.0,70.0,chichi_172
71,71.0,71.0,zoku_butsu_kun
72,72.0,72.0,DopeCoara
73,73.0,73.0,PadSporon
74,74.0,74.0,I2K9t
75,75.0,75.0,YYY_suke
76,76.0,76.0,sgosgoii
77,77.0,77.0,kou_4450
78,78.0,78.0,B1ue_ssk
79,79.0,79.0,yucha1116
80,80.0,80.0,IAMKATOUMILIYAH
81,81.0,81.0,sunachigyozaman
82,82.0,82.0,___one_two
83,83.0,83.0,_hayumeyu_
84,84.0,84.0,TSUBASA_GPM
85,85.0,85.0,itikawatika
86,86.0,86.0,kano_show0924
87,87.0,87.0,atiki_0211
88,88.0,88.0,Pulluppppo
89,89.0,89.0,furareguitar121
90,90.0,90.0,momoDQR
91,91.0,91.0,mihowatanabe726
92,92.0,92.0,chiga_lychee
93,93.0,93.0,mikashi1984
94,94.0,94.0,dryboys
95,95.0,95.0,hanahand7
96,96.0,96.0,EK4VTEC
97,97.0,97.0,korotodotakaku1
98,98.0,98.0,kiriwo_al
99,99.0,99.0,soramame_aomame
100,100.0,100.0,kaf_fak
101,101.0,101.0,NakasyunTikin
102,102.0,102.0,26f6pm5
103,103.0,103.0,mikumikur32
104,104.0,104.0,hrhr_jp
105,105.0,105.0,nnyuki0930
106,106.0,106.0,erwachsen_Meer
107,107.0,107.0,mounemutaima
108,108.0,108.0,mttw71
109,109.0,109.0,astk_r
110,110.0,110.0,cQKm6mg145rRxTH
111,111.0,111.0,Gt_Seitaso
112,112.0,112.0,m85157020
113,113.0,113.0,05BlancRaven13
114,114.0,114.0,Cow02Mo
115,115.0,115.0,aiaitoyaritai
116,116.0,116.0,nabe38364451
117,117.0,117.0,haruuuka531
118,118.0,118.0,taiyaki2003_426
119,119.0,119.0,a34Hrm
120,120.0,120.0,rnkp__
121,121.0,121.0,kona5na5nako
122,122.0,122.0,kinchanfight
123,123.0,123.0,nontan_handa39
124,124.0,124.0,917amono
125,125.0,125.0,konacha_cha
126,126.0,126.0,rururu_fff
127,127.0,127.0,pani53325039
128,128.0,128.0,GMxkCzaBSWZ5wPc
129,129.0,129.0,_ankxx
130,130.0,130.0,gomennehan
131,131.0,131.0,yo1u_ad
132,132.0,132.0,irV1O9JHIiOEl7t
133,133.0,133.0,kaede_tym
134,134.0,134.0,mgmgmgmg2153
135,135.0,135.0,yamaneko72
136,136.0,136.0,Gmail6910
137,137.0,137.0,mA56355120
138,138.0,138.0,szk_issei
139,139.0,139.0,_m8hh2
140,140.0,140.0,iroiroarimasue
141,141.0,141.0,kawa__aiko
142,142.0,142.0,vGp1wmLCvGzk5VO
143,143.0,143.0,_80808080_
144,144.0,144.0,ilikegoya
145,145.0,145.0,minusiyon
146,146.0,146.0,k127_r
147,147.0,147.0,dlnet64
148,148.0,148.0,atamaitaiyooo0
149,149.0,149.0,hananona__
150,150.0,150.0,Baby_ichigomilk
151,151.0,151.0,nakana0124
152,152.0,152.0,7lovedisco
153,153.0,153.0,hujiminopuusan
154,154.0,154.0,dissdogg
155,155.0,155.0,mames0182
156,156.0,156.0,tukitukikaruta
157,157.0,157.0,soukenbic
158,158.0,158.0,sig_0712_2
159,159.0,159.0,yyusukee128
160,160.0,160.0,sino01_05
161,161.0,161.0,Mitsuru19810216
162,162.0,162.0,gerogero_33
163,163.0,163.0,ranranbsu
164,164.0,164.0,es__4_
165,165.0,165.0,chancee26
166,166.0,166.0,MoyashiSwimmer
167,167.0,167.0,kill_me_bay_bay
168,168.0,168.0,982EzwtmReRhSUY
169,169.0,169.0,junpem06
170,170.0,170.0,khimajinn5
171,171.0,171.0,_Oath_H
172,172.0,172.0,DCDCEBE
173,173.0,173.0,akn523_
174,174.0,174.0,Tasche_iidx
175,175.0,175.0,aki_ra_1110
176,176.0,176.0,m___k___24
177,177.0,177.0,siizun_
178,178.0,178.0,Potatosalad710
179,179.0,179.0,420bribri
180,180.0,180.0,NZGdJoZpCurGR3f
181,181.0,181.0,pookun10
182,182.0,182.0,WineyBrothers
183,183.0,183.0,yuyukiki77777
184,184.0,184.0,chiwosuuwayo
185,185.0,185.0,veleno_v2
186,186.0,186.0,ShinoNiL
187,187.0,187.0,ookinidoumo
188,188.0,188.0,Linally016
189,189.0,189.0,HirokiH
190,190.0,190.0,yumetaka0414
191,191.0,191.0,yumechan153
192,192.0,192.0,Risa666666
193,193.0,193.0,hagenoggy
194,194.0,194.0,ikatanukikurage
195,195.0,195.0,B1kcNd
196,196.0,196.0,____yyy____u
197,197.0,197.0,unagi_1386
198,198.0,198.0,pega_sus_b
199,199.0,199.0,d0ntkn0wy0u
200,200.0,200.0,oreoreoreore__
201,201.0,201.0,saneyoco
202,202.0,202.0,alcohol_livers
203,203.0,203.0,_nagakou
204,204.0,204.0,scumbag64
205,205.0,205.0,masaki1199
206,206.0,206.0,matsuridao_0
207,207.0,207.0,sumisu_jp
208,208.0,208.0,anericogasykocu
209,209.0,209.0,mmmmnemuyami
210,210.0,210.0,doragenai6018
211,211.0,211.0,Nama5mi
212,212.0,,xocrix
213,,,ty0Lw7lCAH1TeWg
214,,,narumu
215,,,kaakerunrun_16
216,,,kYTBfZFlvOuDU6Y
217,,,itsuki_ktm
218,,,_4synr
219,,,yknk_oniku
220,,,kanabun_w
221,,,ebichangraphics
222,,,ibisam328
223,,,YumYumYuuumi
224,,,chaaan420
225,,,chks_torii
226,,,KKND_
227,,,yarukiwokure_yo
228,,,g_job_3
229,,,ano_tin_than
230,,,hell_plus1
231,,,Yw5bB
232,,,Capricorn0321
233,,,sugita_335
234,,,Mi_____Or
235,,,kakunegi0133
236,,,xXJ4ZNqkMOn2CAJ
237,,,kanaka67
238,,,aurum_0
239,,,coto0223
240,,,suisenzappy
241,,,mememem42720406
242,,,Valor22048239
243,,,FqiIHRii7jZ1XY9
244,,,a83901105
245,,,33_a_y
246,,,monzetsukozou
247,,,kakuseichan_X
248,,,ul3nGTSZY6OGRwk
249,,,Bkdn0
250,,,yuri95112
251,,,UjxT9XUYFOE318x
252,,,at_pybk
253,,,m_i_jw2
254,,,sanshooooooo
255,,,chikakukab
256,,,mo86521331
257,,,chiisai_inochi
258,,,_kimch38
259,,,adtrors
260,,,falorn_DM
261,,,ybnchan
262,,,sha_oz_4649
263,,,ogn_831
264,,,FlameL0141
265,,,knpk3
266,,,sen8kn5
267,,,fuji_san_
268,,,aiueodayo55555
269,,,17v_x
270,,,olive_hamachi
271,,,sunnychapter
272,,,sakananojinsei
273,,,nicqxxx
274,,,HATOTORIHATO
275,,,jojolication
276,,,MO_LaaKu
277,,,akaname18
278,,,CArbOniC_NacL
279,,,menheranamekuzi
280,,,tanochika1
281,,,namazoffuyu
282,,,Nontang
283,,,Ab_Kykn
284,,,N_40Y_4
285,,,ohyeah_337
286,,,InnuSlope
287,,,gjjfaw
288,,,Chelsea002400
289,,,otm430
290,,,Tksmkiss
291,,,omame_2019
292,,,YIN_YANG_FIRE
293,,,iCaZC4GKeqFQK0m
294,,,mggggjggg
295,,,mathk_princess
296,,,k_07631
297,,,r_18moukeireru
298,,,Nawobonbon
299,,,aro_skb
300,,,s_371
301,,,Uy2Bz3JbmeRDOgp
302,,,yukism1
303,,,adidas00523
304,,,kouki045_
305,,,FGO32603329
306,,,kpmokonc
307,,,chiiharu5267
308,,,ABCDTHC1HIJKLSD
309,,,XO3lYO
310,,,Hidari_Zaizon
311,,,HANAHANAjukiya
312,,,youko11102000
313,,,BG4ZxS3vcqXRLeF
314,,,mimicomets
315,,,kowakunaaaaaai
316,,,t_n_i_1019
317,,,k1_badgrlriri
318,,,8h7ra523go
319,,,abcdefgeggs
320,,,zun__moon
321,,,GackyCoffee
322,,,hibiiiiiiiii
323,,,xxaaasasa
324,,,gerikoma1187
325,,,giventokyo
326,,,MiKlT0
327,,,laderhozen_
328,,,up_q9
329,,,seikaihaechigo
330,,,y9oUdNkfjuuENSz
331,,,ogi___88
332,,,hime_mukami
333,,,WyamgLc6pCxj0p9
334,,,yui258085
335,,,AL_chu_seaman
336,,,ZHongL21
337,,,_concreat_
338,,,thisanidiot
339,,,_cheu2
340,,,aaaa_5555_
341,,,yoyo0330yoyo
342,,,thoir3
343,,,asiburajda
344,,,paco_1700
345,,,Accelerate165
346,,,m2_ktn
347,,,e_________mp
348,,,mllimillm
349,,,ogawanonao
350,,,OIHS3W
351,,,_Mafiiii_
352,,,reaj1m0n
353,,,setcion9
354,,,yaki_torosamon
355,,,kBlue320
356,,,ssssgy
357,,,PIPPIPIPPIPIPP
358,,,tedori20hoshii
359,,,shotaitimura72
360,,,nenabe_ruru
361,,,waga4154013
362,,,chuchumart
363,,,king_mhw_
364,,,realtt_n
365,,,NRtama_DRS
366,,,SONU_Electric
367,,,Yoxied
368,,,oboreteshizumu
369,,,garlslovewww
370,,,aoaoaou123456
371,,,Occhialirossi
372,,,_po24_
373,,,15noyo_ru_
374,,,2014_0830
375,,,pipipi_nemu_
376,,,takaroom3
377,,,jun_san_land
378,,,raysee_
379,,,c_lmt
380,,,taya_m_420
381,,,kenko__daiichi
382,,,eiei621
383,,,DcsmqA
384,,,seagullsan_820
385,,,sinzinkyabajo
386,,,fgwaninvNcZM94J
387,,,sunazukin325
388,,,Lxx_420
389,,,miiisaki_rpp
390,,,buriburihahaha
391,,,OZ8lkNLleoB1EiB
392,,,Yuuu_s2A
393,,,huumi_hukuro
394,,,HGgfjxaMsEAyHCa
395,,,nininiwrx
396,,,Co1Ezo
397,,,pomepome031
398,,,LEEYAMAMOTO
399,,,IQ_122
400,,,ovalsk04281
401,,,karen_niconico
402,,,___sxx_00
403,,,IN_LAN_MEATBOY
404,,,syooooo_111
405,,,J_Rock_Loud
406,,,Aki06A
407,,,pqq_u
408,,,neptune_chaan
409,,,y0n025
410,,,pinopiyopi
411,,,Shunryu_police
412,,,undercrown_69
413,,,jbbp_ginjyo
414,,,ishdhdu
415,,,snsyametaiyo
416,,,1582pu1
417,,,saunatatetai
418,,,cookie10977887
419,,,masakubo1204
420,,,0s5YMgadBEtBgwy
421,,,kareshi_inaii
422,,,kotarouchan0706
423,,,gekko182
424,,,yamaguchima0
425,,,arrazy45
426,,,meganeyake
427,,,gekkousora_b
428,,,pmm_x_mmq
429,,,amn0222
430,,,t_c__u
431,,,syoyuno
432,,,togo0828
433,,,madridista_1225
434,,,_arahito_ptp
435,,,kalune2
436,,,qGc90qXzOnHNuWl
437,,,heiwaga_No1
438,,,atsuya628
439,,,ayusora1717
440,,,pyjn_wug
441,,,BtCrp
442,,,circlebook_o0
443,,,kani_mtg
444,,,0411Kanade
445,,,nekodaizin
446,,,takuma11228
447,,,TeauCM
448,,,RosariumPhiroso
449,,,am314159265
450,,,13Afx
451,,,1111112___
452,,,kh___s00
453,,,na___nu
454,,,kK9zbN65WPL4ATe
455,,,ya_ma_27
456,,,willstduMayaku
457,,,goji0928
458,,,tokugosu
459,,,Nakai75455599
460,,,lyrakoji
461,,,mizy_15
462,,,eNomT2MG1HPssM5
463,,,tanbarin_ukeru
464,,,___sashimichan_
465,,,ushiko_09
466,,,wakatamasoup
467,,,DockDoll
468,,,r2boBeuvdeRFs0b
469,,,na_xx_0927
470,,,boptgagwg
471,,,lsat88512887
472,,,ka___rr
473,,,freeofganban
474,,,mamefu_776
475,,,ql0tas
476,,,3109sat
477,,,sio_mamen
478,,,inukawaiinen
479,,,taka_____0728
480,,,sijimi_kanae
481,,,van_khish
482,,,kino_nano
483,,,Zz_INOUE_zZ
484,,,RemiSapo
485,,,teito12012111
486,,,Pp4dW
487,,,hose_ha
488,,,unenene
489,,,yaza_non13
490,,,wTGrfm69pjh2HMP
491,,,m_bpm119
492,,,orangorirapple
493,,,donplay4gfriend
494,,,mmkkppp
495,,,nq_z8
496,,,___neneko
497,,,no_made062
498,,,shiki_0090
499,,,tukataro_1205
500,,,2Fv0hJ9BFPufkNl
501,,,Culephy
502,,,kanashi_monster
503,,,kuyt_049
504,,,ANlillilli
505,,,lipps_teppei
506,,,acaictr
507,,,hmnsan7
508,,,nachanpekopeko
509,,,ADHD_macallan
510,,,Iowa_kun
511,,,foolling00
512,,,sakanarukara00
513,,,tablehl
514,,,_0iooO
515,,,aiam_ta
516,,,Hettantugi
517,,,ori_FXXking0916
518,,,anything9101
519,,,mer__mer__meru
520,,,TemariYuu
521,,,setayasu1
522,,,a_fact_of__life
523,,,toiletaka
524,,,1024Ohis
525,,,sitigatudayo
526,,,1230_kyoka
527,,,sss38883485
528,,,homei_carp
529,,,forgivememomdad
530,,,takayamey
531,,,keiko_0505
532,,,nekosan_boyoyon
533,,,sGjA3a5CXHUb
534,,,kkg_tnsai
535,,,t4km1
536,,,syake_na_baby31
537,,,ya1234wl
538,,,UoxoU_o0im
539,,,higucch
540,,,hipopo0213
541,,,sachuuu_
542,,,eiennosyojyo
543,,,fyolo8
544,,,io_kurukkuuuu
545,,,sayukidisney
546,,,S_yuki316
547,,,harada151209
548,,,weywwwwwwwwwww1
549,,,GuriTech
550,,,BuildingKwsm
551,,,springdai21665
552,,,OoOoOo_Oo_OoOoO
553,,,kamonaka99722
554,,,kazitu_atoti
555,,,079_093_026
556,,,tomo770213
557,,,l_LOVE_YOKOHAMA
558,,,6YZT5jZ8rQyJJdQ
559,,,sawachan_0603
560,,,kin_ko_chan
561,,,wwwkcwww
562,,,__shion428
563,,,nuwara_eliya12
564,,,maclover_666
565,,,maaaachi109
566,,,aaa6_6mmm
567,,,joh116_no1
568,,,ichigo15chan_
569,,,marshmallowfat
570,,,kaqnageyanen
571,,,eJeyYYjKIsGFRwD
572,,,go_to_510_
573,,,jukenyameteeeee
574,,,dagasiya510
575,,,yuuuuuuuukiy
576,,,tamuraJameson
577,,,Nightmare_WTH
578,,,xjapan4752
579,,,tsumu2188
580,,,7hia0Vf6dx
581,,,youkxy
582,,,pkmnmag
583,,,black_kitachan
584,,,dv_36
585,,,prostoro_
586,,,10932sion
587,,,PTbytde
588,,,DJ_CANCER721
589,,,everb1ue_it
590,,,n_telutola
591,,,nao77046639
592,,,___4gg
593,,,yamadayamato1
594,,,hiromigogogogou
595,,,hghghghg999666
596,,,sinpy04
597,,,masomanami
598,,,yuzumi_bibi
599,,,amayaqll
600,,,back_a_bone_too
601,,,Jaguyama
602,,,kotarousan0211
603,,,gucigucifuckoff
604,,,su_tamo96
605,,,soryasodana
606,,,heli_purupuru
607,,,ichiro_EA7
608,,,key_fuuu
609,,,sintalow13
610,,,O3EXFlKAULXRoNy
611,,,uemonchy
612,,,__itnq
613,,,ngpvJ0H9wrVHuyU
614,,,hiroto_2247
615,,,Shuternen_
616,,,_zenzai2
617,,,kz_kzzzzzz
618,,,Block2carbine
619,,,SparrowRoastP
620,,,regret_empty
621,,,busboy1969
622,,,squires0006
623,,,striker7140_
624,,,teteteteted_m
625,,,kura0311
626,,,jagarikoumaiyo2
627,,,oda4640262852
628,,,tutmdjgajpa
629,,,A_HSB_314
630,,,rerei114
631,,,Appleppleple
632,,,north_searoad
633,,,Rima_tk
634,,,wwyuki_59
635,,,gurin4684
636,,,maho910237
637,,,karinchanya
638,,,takki0720
639,,,kur0hane
640,,,sadguccigang
641,,,myhairis46
642,,,S_igae
643,,,tonchincannabia
644,,,koZippo
645,,,loveREITA1218
646,,,bba_sweets
647,,,Cyaegha3309
648,,,uhhhhhhhhh_m
649,,,nymph_kotanium
650,,,kaltukousama
651,,,ATARIME27
652,,,q7WIXg0Yjm37s1q
653,,,fjsk_shk
654,,,mikanneco0
655,,,anocimcim
656,,,Kaede_born0318
657,,,hiijf
658,,,JbYmw
659,,,110tori1
660,,,toki50442998
661,,,ishiyama10031
662,,,mmm89120715
663,,,panpan_com_jp
664,,,kae_higashino
665,,,nyonn1227
666,,,Ladyshocolate1
667,,,2hmm2
668,,,tonytrujillo17
669,,,milkyqueen00
670,,,gibeplus
671,,,fight_makeinu
672,,,t7cwwbBjh5O1BRw
673,,,hanauta_suki
674,,,asinoue3
675,,,0nebou3
676,,,SugarCaneguest
677,,,6Globefish
678,,,Kira_anekuru
679,,,___mogi
680,,,f7e1c4a333c74a6
681,,,ke_gigigi
682,,,yo_nagai
683,,,kosuma312
684,,,ayato0122t
685,,,ryu_ayayay_
686,,,ryotaro47836685
687,,,kurikura8
688,,,chimpan28955930
689,,,ctxy_
690,,,kuga0619
691,,,tuke_tan
692,,,mikiyacorocoro0
693,,,zep0129
694,,,Ta7i2KI8
695,,,nenpachi0142a
696,,,sakumotosyou
697,,,getter8008
698,,,syobon_SDVX
699,,,1002chu48
700,,,3zinoo
701,,,MTcool_Rolipop
702,,,ipBMI
703,,,tanto0924
704,,,xRL_xx
705,,,mmmmt_1
706,,,Shogo_tkhs
707,,,tetsuyagonnadie
708,,,3S9lCmxXpuBgm2Q
709,,,mimitampompom
710,,,Zawakoooo
711,,,yutaka_maya
712,,,kanahumi_
713,,,Milukuri_0506
714,,,_hiroto0278
715,,,weider_in_nemii
716,,,AnalFJIN
717,,,pandaibutsu
718,,,yabakunaidesu
719,,,tokirt_0705
720,,,ota_hera
721,,,SHIRASUNNN_
722,,,forest0816
723,,,BlackBlackShade
724,,,_mmrr12
725,,,rin_rin_toku
726,,,gyu75s
727,,,DzKqa
728,,,CLto28
729,,,Ktep141
730,,,i_3j3b
731,,,iwnll18
732,,,peperon_miriki
733,,,martin035823
734,,,636__k
